<svg xmlns="http://www.w3.org/2000/svg" xmlns:xlink="http://www.w3.org/1999/xlink" width="38" height="38" viewBox="0 0 64 58">
  <defs>
    <style>
      .cls-1 {
        fill: none;
        stroke: #fff;
        stroke-width: 1px;
      }

      .cls-2 {
        filter: url(#filter);
      }

      .cls-3, .cls-4 {
        fill: #fff;
      }

      .cls-4, .cls-6 {
        fill-rule: evenodd;
      }

      .cls-5 {
        fill: #fff;
        filter: url(#filter-2);
      }

      .cls-6 {
        fill: #3eb4f0;
      }
    </style>
    <filter id="filter" filterUnits="userSpaceOnUse">
      <feOffset result="offset" in="SourceAlpha"/>
      <feGaussianBlur result="blur" stdDeviation="2.236"/>
      <feFlood result="flood" flood-opacity="0.6"/>
      <feComposite result="composite" operator="in" in2="blur"/>
      <feBlend result="blend" in="SourceGraphic"/>
    </filter>
    <filter id="filter-2" x="7" y="14" width="50" height="37" filterUnits="userSpaceOnUse">
      <feOffset result="offset" in="SourceAlpha"/>
      <feGaussianBlur result="blur" stdDeviation="3.162"/>
      <feFlood result="flood" flood-opacity="0.6"/>
      <feComposite result="composite" operator="in" in2="blur"/>
      <feBlend result="blend" in="SourceGraphic"/>
    </filter>
  </defs>
  <g id="Монтажная_область_1">
    <g id="Группа_1" >
      <g id="Группа_3">
        <circle id="Эллипс_2"  class="cls-1" cx="11.5" cy="11.5" r="3.5"/>
        <circle id="Эллипс_1_копия_2" class="cls-1" cx="11.5" cy="11.5" r="7.5"/>
      </g>
      <g id="Группа_2" >
        <circle id="Эллипс_2_копия"  class="cls-1" cx="52.5" cy="11.5" r="3.5"/>
        <circle id="Эллипс_1" class="cls-1" cx="52.5" cy="11.5" r="7.5"/>
      </g>
      <g id="Группа_4" >
        <circle id="Эллипс_1_копия" class="cls-1" cx="31.5" cy="52" r="7.5"/>
        <circle id="Эллипс_2_копия_2"  class="cls-1" cx="31.5" cy="52" r="3.5"/>
        <g id="Группа_6" class="cls-2">
          <rect id="Прямоугольник_скругл._углы_2"  class="cls-3" x="29" y="29" width="5" height="26" rx="2.5" ry="2.5"/>
          <path id="Прямоугольник_скругл._углы_2_копия" class="cls-4" d="M10.165,9.25a2.5,2.5,0,0,1,3.415.915l10.5,18.187a2.5,2.5,0,1,1-4.33,2.5L9.25,12.665A2.5,2.5,0,0,1,10.165,9.25Z"/>
          <path id="Прямоугольник_скругл._углы_2_копия_2"  class="cls-4" d="M40.3,31.66a2.632,2.632,0,0,0,3.518-.907L54.632,12.738a2.425,2.425,0,0,0-.943-3.383,2.632,2.632,0,0,0-3.518.906L39.354,28.277A2.425,2.425,0,0,0,40.3,31.66Z"/>
        </g>
      </g>
    </g>
    <g id="Группа_5" >
      <rect id="Прямоугольник_скругл._углы_1"  class="cls-5" x="16" y="23" width="31" height="18" rx="4" ry="4"/>
      <path id="GIT" class="cls-6" d="M27.65,35.5a4.561,4.561,0,0,1-2.362.6,4.269,4.269,0,0,1-2.14-.533A3.848,3.848,0,0,1,21.672,34.1a4.157,4.157,0,0,1-.533-2.1,4.225,4.225,0,0,1,.533-2.133,3.734,3.734,0,0,1,1.476-1.45,4.416,4.416,0,0,1,2.157-.517,4.28,4.28,0,0,1,3.165,1.333L29.815,27.9a5.153,5.153,0,0,0-1.984-1.417A6.867,6.867,0,0,0,25.207,26a6.543,6.543,0,0,0-3.19.775,5.691,5.691,0,0,0-2.222,2.142,6.317,6.317,0,0,0,0,6.167,5.7,5.7,0,0,0,2.214,2.142A6.462,6.462,0,0,0,25.174,38a7.815,7.815,0,0,0,2.427-.383,6.376,6.376,0,0,0,2.066-1.1v-4.65H27.65V35.5Zm3.837,2.333H33.62V26.162H31.488V37.829Zm6.576,0H40.2V28H44V26.162H34.259V28h3.8v9.833Z"/>
    </g>
  </g>
</svg>
